src/a.vcd
$date
	Tue Feb 16 19:31:14 2021
$end
$version
	Icarus Verilog
$end
$timescale
	1ns
$end
$scope module tb $end
$var wire 32 ! data2 [31:0] $end
$var wire 32 " data1 [31:0] $end
$var reg 1 # clock $end
$var reg 1 $ inEn $end
$var reg 5 % read1 [4:0] $end
$var reg 5 & read2 [4:0] $end
$var reg 32 ' writedata [31:0] $end
$var reg 5 ( writereg [4:0] $end
$var integer 32 ) i [31:0] $end
$var integer 32 * j [31:0] $end
$scope module uut $end
$var wire 1 # clock $end
$var wire 32 + data1 [31:0] $end
$var wire 32 , data2 [31:0] $end
$var wire 1 $ inEn $end
$var wire 5 - read1 [4:0] $end
$var wire 5 . read2 [4:0] $end
$var wire 32 / writedata [31:0] $end
$var wire 5 0 writereg [4:0] $end
$var integer 32 1 i [31:0] $end
$upscope $end
$upscope $end
$enddefinitions $end
#0
$dumpvars
b100000 1
b1 0
b1 /
bx .
bx -
bx ,
bx +
bx *
b0 )
b1 (
b1 '
bx &
bx %
1$
0#
bx "
bx !
$end
#10
b100000 1
b10 '
b10 /
b10 (
b10 0
b1 )
1#
#20
b11 '
b11 /
b11 (
b11 0
b10 )
0#
#30
b100000 1
b100 '
b100 /
b100 (
b100 0
b11 )
1#
#40
b101 '
b101 /
b101 (
b101 0
b100 )
0#
#50
b100000 1
b110 '
b110 /
b110 (
b110 0
b101 )
1#
#60
b111 '
b111 /
b111 (
b111 0
b110 )
0#
#70
b100000 1
b1000 '
b1000 /
b1000 (
b1000 0
b111 )
1#
#80
b1001 '
b1001 /
b1001 (
b1001 0
b1000 )
0#
#90
b100000 1
b1010 '
b1010 /
b1010 (
b1010 0
b1001 )
1#
#100
b1011 '
b1011 /
b1011 (
b1011 0
b1010 )
0#
#110
b100000 1
b1100 '
b1100 /
b1100 (
b1100 0
b1011 )
1#
#120
b1101 '
b1101 /
b1101 (
b1101 0
b1100 )
0#
#130
b100000 1
b1110 '
b1110 /
b1110 (
b1110 0
b1101 )
1#
#140
b1111 '
b1111 /
b1111 (
b1111 0
b1110 )
0#
#150
b100000 1
b10000 '
b10000 /
b10000 (
b10000 0
b1111 )
1#
#160
b10001 '
b10001 /
b10001 (
b10001 0
b10000 )
0#
#170
b100000 1
b10010 '
b10010 /
b10010 (
b10010 0
b10001 )
1#
#180
b10011 '
b10011 /
b10011 (
b10011 0
b10010 )
0#
#190
b100000 1
b10100 '
b10100 /
b10100 (
b10100 0
b10011 )
1#
#200
b10101 '
b10101 /
b10101 (
b10101 0
b10100 )
0#
#210
b100000 1
b10110 '
b10110 /
b10110 (
b10110 0
b10101 )
1#
#220
b10111 '
b10111 /
b10111 (
b10111 0
b10110 )
0#
#230
b100000 1
b11000 '
b11000 /
b11000 (
b11000 0
b10111 )
1#
#240
b11001 '
b11001 /
b11001 (
b11001 0
b11000 )
0#
#250
b100000 1
b11010 '
b11010 /
b11010 (
b11010 0
b11001 )
1#
#260
b11011 '
b11011 /
b11011 (
b11011 0
b11010 )
0#
#270
b100000 1
b11100 '
b11100 /
b11100 (
b11100 0
b11011 )
1#
#280
b11101 '
b11101 /
b11101 (
b11101 0
b11100 )
0#
#290
b100000 1
b11110 '
b11110 /
b11110 (
b11110 0
b11101 )
1#
#300
b11111 '
b11111 /
b11111 (
b11111 0
b11110 )
0#
#310
b100000 '
b100000 /
b0 (
b0 0
b11111 )
1#
#320
0$
b0 '
b0 /
b0 *
b100000 )
0#
#330
b1 *
1#
#340
b10 *
0#
#350
b11 *
1#
#360
b100 *
0#
#370
b101 *
1#
#380
b110 *
0#
#390
b111 *
1#
#400
b1000 *
0#
#410
b1001 *
1#
#420
b1010 *
0#
#430
b1011 *
1#
#440
b1100 *
0#
#450
b1101 *
1#
#460
b1110 *
0#
#470
b1111 *
1#
#480
b10000 *
0#
#490
b10001 *
1#
#500
b10010 *
0#
#510
b10011 *
1#
#520
b10100 *
0#
#530
b10101 *
1#
#540
b10110 *
0#
#550
b10111 *
1#
#560
b11000 *
0#
#570
b11001 *
1#
#580
b11010 *
0#
#590
b11011 *
1#
#600
b11100 *
0#
#610
b11101 *
1#
#620
b11110 *
0#
#630
b11111 *
1#
#640
b100000 *
0#
